HolidayDate,Holiday,Type
1/1/2015,NewYears,National
2/16/2015,Presidents,National
3/17/2015,StPatricksDay,Event
5/10/2015,Mother's day,Other
5/25/2015,MemorialDay,National
6/21/2015,Father's Day,Other
7/3/2015,July4th,National
7/4/2015,July4th,National
7/31/2015,Lollapalooza,Event
8/1/2015,Lollapalooza,Event
8/2/2015,Lollapalooza,Event
9/7/2015,LaborDay,National
10/31/2015,Halloween,Event
11/11/2015,VeteransDay,Other
11/26/2015,Thanksgiving,National
11/27/2015,BlackFriday,Other
12/25/2015,Christmas,National
1/1/2016,NewYears,National
2/15/2016,Presidents,National
3/17/2016,StPatricksDay,Event
5/8/2016,Mother's day,Other
5/30/2016,MemorialDay,National
6/19/2016,Father's Day,Other
7/4/2016,July4th,National
7/28/2016,Lollapalooza,Event
7/29/2016,Lollapalooza,Event
7/30/2016,Lollapalooza,Event
7/31/2016,Lollapalooza,Event
9/5/2016,LaborDay,National
10/31/2016,Halloween,Event
11/11/2016,VeteransDay,Other
11/24/2016,Thanksgiving,National
11/25/2016,BlackFriday,Other
12/25/2016,Christmas,National
1/1/2017,NewYears,National
2/20/2017,Presidents,National
3/17/2017,StPatricksDay,Event
5/14/2017,Mother's day,Other
5/29/2017,MemorialDay,National
6/18/2017,Father's Day,Other
7/4/2017,July4th,National
8/3/2017,Lollapalooza,Event
8/4/2017,Lollapalooza,Event
8/5/2017,Lollapalooza,Event
8/6/2017,Lollapalooza,Event
9/4/2017,LaborDay,National
10/31/2017,Halloween,Event
11/11/2017,VeteransDay,Other
11/23/2017,Thanksgiving,National
11/24/2017,BlackFriday,Other
12/25/2017,Christmas,National
1/1/2018,NewYears,National
2/19/2018,Presidents,National
3/17/2018,StPatricksDay,Event
5/13/2018,Mother's day,Other
5/28/2018,MemorialDay,National
6/17/2018,Father's Day,Other
7/4/2018,July4th,National
8/2/2018,Lollapalooza,Event
8/3/2018,Lollapalooza,Event
8/4/2018,Lollapalooza,Event
8/5/2018,Lollapalooza,Event
9/3/2018,LaborDay,National
10/31/2018,Halloween,Event
11/11/2018,VeteransDay,Other
11/22/2018,Thanksgiving,National
11/23/2018,BlackFriday,Other
12/25/2018,Christmas,National
1/1/2019,NewYears,National
2/18/2019,Presidents,National
3/17/2019,StPatricksDay,Event
5/12/2019,Mother's day,Other
5/27/2019,MemorialDay,National
6/16/2019,Father's Day,Other
7/4/2019,July4th,National
8/1/2019,Lollapalooza,Event
8/2/2019,Lollapalooza,Event
8/3/2019,Lollapalooza,Event
8/4/2019,Lollapalooza,Event
9/2/2019,LaborDay,National
10/31/2019,Halloween,Event
11/11/2019,VeteransDay,Other
11/28/2019,Thanksgiving,National
11/29/2019,BlackFriday,Other
12/25/2019,Christmas,National
