Date,NonNormAvg,Avg,Precipitation,NewSnow,weekday,weekNumber,MovieCount,IsHoliday,HolidayPastDays,Holiday_NewYears,Holiday_Presidents,Holiday_StPatricksDay,Holiday_Mother's day,Holiday_MemorialDay,Holiday_Father's Day,Holiday_July4th,Holiday_Lollapalooza,Holiday_LaborDay,Holiday_Halloween,Holiday_VeteransDay,Holiday_Thanksgiving,Holiday_BlackFriday,Holiday_Christmas
2/8/2019,8.5,0.137362637,0,0,0.67,0.11,0.57,0,0,0,0,0,0,0,0,0,0,0,0,0,0,0,0
2/9/2019,14,0.197802198,0,0,0.83,0.11,0.57,0,0,0,0,0,0,0,0,0,0,0,0,0,0,0,0
2/10/2019,25,0.318681319,0.009546539,0.1,1,0.11,0.57,0,0,0,0,0,0,0,0,0,0,0,0,0,0,0,0
2/11/2019,29,0.362637363,0.045346062,0.014285714,0,0.13,0.57,0,0,0,0,0,0,0,0,0,0,0,0,0,0,0,0
2/12/2019,26.5,0.335164835,0.08353222,0.214285714,0.17,0.13,0.57,0,0,0,0,0,0,0,0,0,0,0,0,0,0,0,0
2/13/2019,18.5,0.247252747,0.002386635,0.085714286,0.33,0.13,0.57,0,0,0,0,0,0,0,0,0,0,0,0,0,0,0,0
2/14/2019,38.5,0.467032967,0,0,0.5,0.13,0.57,0,0,0,0,0,0,0,0,0,0,0,0,0,0,0,0
2/15/2019,22,0.285714286,0,0,0.67,0.13,0.57,0,0,0,0,0,0,0,0,0,0,0,0,0,0,0,0
2/16/2019,24,0.307692308,0.009546539,0.072857143,0.83,0.13,0.57,0,0,0,0,0,0,0,0,0,0,0,0,0,0,0,0
2/17/2019,27.5,0.346153846,0.038186158,0.3,1,0.13,0.57,0,0,0,0,0,0,0,0,0,0,0,0,0,0,0,0
2/18/2019,24.5,0.313186813,0.002386635,0.028571429,0,0.15,0.14,1,0,0,1,0,0,0,0,0,0,0,0,0,0,0,0
2/19/2019,28.5,0.357142857,0.016706444,0.142857143,0.17,0.15,0.14,0,1,0,0,0,0,0,0,0,0,0,0,0,0,0,0
2/20/2019,32.5,0.401098901,0.038186158,0.242857143,0.33,0.15,0.14,0,1,0,0,0,0,0,0,0,0,0,0,0,0,0,0
2/21/2019,31,0.384615385,0,0,0.5,0.15,0.14,0,1,0,0,0,0,0,0,0,0,0,0,0,0,0,0
2/22/2019,35.5,0.434065934,0,0,0.67,0.15,0.14,0,1,0,0,0,0,0,0,0,0,0,0,0,0,0,0
2/23/2019,37.5,0.456043956,0.023866348,0,0.83,0.15,0.14,0,0,0,0,0,0,0,0,0,0,0,0,0,0,0,0
2/24/2019,29.5,0.368131868,0,0,1,0.15,0.14,0,0,0,0,0,0,0,0,0,0,0,0,0,0,0,0
2/25/2019,27,0.340659341,0,0,0,0.17,0.29,0,0,0,0,0,0,0,0,0,0,0,0,0,0,0,0
2/26/2019,22,0.285714286,0,0,0.17,0.17,0.29,0,0,0,0,0,0,0,0,0,0,0,0,0,0,0,0
2/27/2019,25.5,0.324175824,0.007159905,0,0.33,0.17,0.29,0,0,0,0,0,0,0,0,0,0,0,0,0,0,0,0
2/28/2019,25.5,0.324175824,0,0,0.5,0.17,0.29,0,0,0,0,0,0,0,0,0,0,0,0,0,0,0,0
